<?xml version="1.0" encoding="UTF-8" standalone="no"?>
<!DOCTYPE svg PUBLIC "-//W3C//DTD SVG 1.1//EN" "http://www.w3.org/Graphics/SVG/1.1/DTD/svg11.dtd">
<svg width="100%" height="100%" viewBox="0 0 34 42" version="1.1" xmlns="http://www.w3.org/2000/svg" xmlns:xlink="http://www.w3.org/1999/xlink" xml:space="preserve" xmlns:serif="http://www.serif.com/" style="fill-rule:evenodd;clip-rule:evenodd;stroke-linejoin:round;stroke-miterlimit:1.41421;">
    <g transform="matrix(1,0,0,1,0.000303124,0.000121161)">
        <g transform="matrix(1,0,0,1,31.439,18.779)">
            <path d="M0,4.213C-0.043,4.196 -0.09,4.193 -0.133,4.181C-1.199,3.36 -2.827,2.956 -4.615,3.126C-4.313,2.137 -4.15,1.087 -4.15,-0.001L-4.15,-4.532C-4.045,-4.465 -3.936,-4.401 -3.82,-4.354C-3.379,-3.618 -2.552,-3.152 -1.638,-3.233C-0.361,-3.342 0.583,-4.468 0.472,-5.743L0.137,-9.594C0.025,-10.87 -0.73,-18.888 -2.007,-18.778C-3.285,-18.664 -2.858,-10.469 -2.745,-9.191L-2.748,-9.186L-4.604,-10.466C-5.929,-14.47 -10.03,-16.533 -14.89,-16.533C-19.806,-16.533 -23.943,-14.415 -25.216,-10.314L-26.853,-9.186L-26.854,-9.191C-26.743,-10.469 -26.315,-18.664 -27.592,-18.778C-28.87,-18.888 -29.625,-10.87 -29.736,-9.594L-30.07,-5.743C-30.185,-4.468 -29.236,-3.342 -27.962,-3.233C-27.048,-3.152 -26.219,-3.618 -25.781,-4.354C-25.727,-4.374 -25.679,-4.409 -25.628,-4.436L-25.628,-0.001C-25.628,1.319 -25.378,2.579 -24.942,3.748C-26.595,3.212 -28.212,3.267 -29.366,3.853C-29.442,3.867 -29.522,3.875 -29.598,3.899C-31.688,4.576 -32.053,9.237 -30.414,14.319C-28.772,19.398 -25.748,22.968 -23.662,22.294C-21.606,21.631 -21.222,17.109 -22.768,12.131C-22.729,12.121 -22.689,12.113 -22.652,12.105C-21.042,15.943 -18.173,18.509 -14.89,18.509C-11.738,18.509 -8.962,16.155 -7.321,12.576C-8.914,17.32 -8.673,21.615 -6.711,22.341C-4.651,23.101 -1.479,19.662 0.376,14.659C2.226,9.65 2.062,4.973 0,4.213" style="fill:rgb(65,140,159);fill-rule:nonzero;"/>
        </g>
    </g>
</svg>
