<?xml version="1.0" encoding="utf-8"?>
<!-- Generator: Adobe Illustrator 22.0.0, SVG Export Plug-In . SVG Version: 6.00 Build 0)  -->
<svg version="1.1" id="Layer_1" xmlns="http://www.w3.org/2000/svg" xmlns:xlink="http://www.w3.org/1999/xlink" x="0px" y="0px"
	 viewBox="0 0 210 148" style="enable-background:new 0 0 210 148;" xml:space="preserve">
<style type="text/css">
	.st0{fill:#FFFFFF;}
</style>
<path class="st0" d="M47.4,78.5c0-0.5,0.1-1,0.3-1.5h-3.3c-1.4,0-2.6-1.5-2.9-3l-13-54h-5.1c-1.7,0-3-1.3-3-3c0-1.7,1.3-3,3-3h7.5
	c1.4,0,2.6,1,2.9,2.3l2.3,9.7h57.8c0.9,0,1.8,0.4,2.3,1.1c0.4,0.5,0.7,1.2,0.7,1.9c0,0.2,0,0.4-0.1,0.6l-6,27
	C90.5,58,89.3,59,87.9,59h-44l2.8,12h36.6c1.7,0,3,1.3,3,3c0,1.7-1.3,3-3,3h-3.3c0.2,0.5,0.3,1,0.3,1.5c0,2.5-2,4.5-4.5,4.5
	c-2.5,0-4.5-2-4.5-4.5c0-0.5,0.1-1,0.3-1.5H56.1c0.2,0.5,0.3,1,0.3,1.5c0,2.5-2,4.5-4.5,4.5C49.4,83,47.4,80.9,47.4,78.5z M41.4,35
	v-3h-3.8l0.7,3H41.4z M41.4,41v-3h-2.4l0.7,3H41.4z M41.4,47v-3h-1l0.7,3H41.4z M47.4,35v-3h-3v3H47.4z M47.4,41v-3h-3v3H47.4z
	 M47.4,47v-3h-3v3H47.4z M47.4,53v-3h-3v3H47.4z M53.4,35v-3h-3v3H53.4z M53.4,41v-3h-3v3H53.4z M53.4,47v-3h-3v3H53.4z M53.4,53v-3
	h-3v3H53.4z M59.4,35v-3h-3v3H59.4z M59.4,41v-3h-3v3H59.4z M59.4,47v-3h-3v3H59.4z M59.4,53v-3h-3v3H59.4z M65.4,35v-3h-3v3H65.4z
	 M65.4,41v-3h-3v3H65.4z M65.4,47v-3h-3v3H65.4z M65.4,53v-3h-3v3H65.4z M71.4,35v-3h-3v3H71.4z M71.4,41v-3h-3v3H71.4z M71.4,47v-3
	h-3v3H71.4z M71.4,53v-3h-3v3H71.4z M77.4,35v-3h-3v3H77.4z M77.4,41v-3h-3v3H77.4z M77.4,47v-3h-3v3H77.4z M77.4,53v-3h-3v3H77.4z
	 M83.4,35v-3h-3v3H83.4z M83.4,41v-3h-3v3H83.4z M83.4,47v-3h-3v3H83.4z M83.4,53v-3h-3v3H83.4z M89.5,35l0.7-3h-3.8v3H89.5z
	 M88.1,41l0.7-3h-2.4v3H88.1z M86.8,47l0.7-3h-1.1v3H86.8z"/>
</svg>
