<?xml version="1.0" encoding="UTF-8" standalone="no"?>
<!DOCTYPE svg PUBLIC "-//W3C//DTD SVG 1.1//EN" "http://www.w3.org/Graphics/SVG/1.1/DTD/svg11.dtd">
<svg width="100%" height="100%" viewBox="0 0 37 37" version="1.1" xmlns="http://www.w3.org/2000/svg" xmlns:xlink="http://www.w3.org/1999/xlink" xml:space="preserve" xmlns:serif="http://www.serif.com/" style="fill-rule:evenodd;clip-rule:evenodd;stroke-linejoin:round;stroke-miterlimit:1.41421;">
    <g transform="matrix(1,0,0,1,-3.55271e-15,0.002)">
        <g transform="matrix(1,0,0,1,-172.774,-1628.19)">
            <g transform="matrix(1,0,0,1,192.001,1631.25)">
                <path d="M0,30.763L0,28.012C0,27.58 -0.352,27.232 -0.782,27.232C-1.215,27.232 -1.567,27.58 -1.567,28.012L-1.567,30.763C-9.456,30.367 -15.77,24.056 -16.167,16.162L-13.541,16.162C-13.108,16.162 -12.757,15.815 -12.757,15.38C-12.757,14.95 -13.108,14.597 -13.541,14.597L-16.167,14.597C-15.77,6.705 -9.454,0.393 -1.561,-0.003C-1.561,0.011 -1.567,0.021 -1.567,0.033L-1.567,2.901C-1.567,3.333 -1.215,3.683 -0.782,3.683C-0.352,3.683 0,3.333 0,2.901L0,0.033C0,0.021 -0.007,0.011 -0.007,-0.003C7.887,0.393 14.203,6.705 14.598,14.597L11.95,14.597C11.518,14.597 11.167,14.95 11.167,15.38C11.167,15.815 11.518,16.162 11.95,16.162L14.598,16.162C14.203,24.056 7.89,30.367 0,30.763M-0.785,-3.062C-10.97,-3.062 -19.227,5.195 -19.227,15.38C-19.227,25.568 -10.97,33.825 -0.785,33.825C9.402,33.825 17.66,25.568 17.66,15.38C17.66,5.195 9.402,-3.062 -0.785,-3.062" style="fill:rgb(65,140,159);fill-rule:nonzero;"/>
            </g>
        </g>
        <g transform="matrix(1,0,0,1,-172.774,-1628.19)">
            <g transform="matrix(1,0,0,1,192.398,1645.86)">
                <path d="M0,-0.643L0.123,1.324L0.204,1.224C0.186,1.255 0.168,1.284 0.146,1.305C0.14,1.311 0.131,1.313 0.123,1.324L2.252,3.452C2.187,3.473 2.123,3.495 2.062,3.521C1.856,3.615 1.673,3.734 1.515,3.889C1.334,4.07 1.204,4.283 1.113,4.518C1.101,4.554 1.089,4.594 1.077,4.629L-1.358,2.196L-1.362,2.197L-1.547,2.008C-1.568,2.035 -1.625,2.1 -1.653,2.124C-1.978,2.448 -2.505,2.448 -2.83,2.124C-3.152,1.801 -3.152,1.273 -2.83,0.947C-2.629,0.748 -2.342,0.67 -2.071,0.728L-2.071,0.735C-2.031,0.739 -1.811,0.717 -1.811,0.717L-1.811,-0.237L-1.881,-0.263C-1.881,-0.276 -1.91,-0.264 -1.91,-0.278L-1.978,-0.342C-2.331,-0.186 -2.752,-0.264 -3.026,-0.538C-3.393,-0.904 -3.393,-1.502 -3.024,-1.87C-2.658,-2.235 -2.062,-2.235 -1.696,-1.872C-1.687,-1.863 -1.609,-1.74 -1.592,-1.716L-1.362,-1.951L-1.359,-1.951L1.396,-4.705C1.419,-4.629 1.444,-4.558 1.475,-4.489C1.576,-4.258 1.714,-4.048 1.892,-3.868C2.094,-3.666 2.336,-3.517 2.604,-3.415C2.643,-3.398 2.687,-3.388 2.729,-3.374L0,-0.643ZM2.4,-8.438C1.61,-7.649 1.127,-6.259 1.301,-5.118L-1.576,-2.241C-2.086,-2.625 -2.815,-2.587 -3.279,-2.122C-3.787,-1.615 -3.787,-0.791 -3.279,-0.282C-2.961,0.032 -2.502,0.158 -2.074,0.064L-2.074,0.404C-2.426,0.35 -2.793,0.464 -3.053,0.725C-3.503,1.171 -3.502,1.9 -3.053,2.347C-2.644,2.758 -1.999,2.795 -1.55,2.454L0.992,4.993C0.837,6.002 1.264,7.226 1.961,7.925C2.953,8.916 4.559,8.916 5.551,7.925C6.542,6.936 6.542,5.329 5.551,4.339C4.852,3.642 3.628,3.215 2.617,3.371L0.324,0.989C0.323,0.991 0.323,0.995 0.323,0.998L0.264,-0.401L3.141,-3.277C4.284,-3.102 5.672,-3.586 6.461,-4.376C7.585,-5.497 7.585,-7.316 6.461,-8.438C5.34,-9.559 3.522,-9.559 2.4,-8.438" style="fill:rgb(65,140,159);fill-rule:nonzero;"/>
            </g>
        </g>
    </g>
</svg>
